{
    "Kaltura.UseAppleAdaptive": {
        "doc": "If apple HLS streams should be used when available.",
        "type": "boolean"
    },
    "Kaltura.LeadHLSOnAndroid": {
        "doc": "If Apple HLS streams should be used when available on Android devices, \r\n\t\t\tby default progressive streams are used on Android because of Android HLS compatibility issues.",
        "type": "boolean"
    },
    "LeadWithHLSOnFlash": {
        "doc": "If Apple HLS streams should be used when available on Desktop browsers with Flash.",
        "type": "boolean"
    },
    "autoPlay": {
        "doc": "If the player should start playback once ready.",
        "type": "boolean"
    },
    "autoMute": {
        "doc": "If set to true, player will start with audio muted. This will be respected across entries and ads, until the user enables volume in the player. Note some VPAID ads do not support auto mute.",
        "type": "boolean"
    },
    "closedCaptions": {
        "description": "Reach multi-lingual audience and comply with FCC regulations with Kaltura multi-lingual closed captions support.",
        "attributes": {
            "layout": {
                "doc": "Layout mode for caption, on top of the video or below the video.",
                "type": "enum",
                "initvalue": "ontop",
                "enum": [
                    "ontop",
                    "below"
                ],
                "options": [
                    {
                        "label": "On top of the video.",
                        "value": "ontop"
                    },
                    {
                        "label": "Below the video.",
                        "value": "below"
                    }
                ]
            },
            "displayCaptions": {
                "doc": "Should caption be displayed by default.",
                "initvalue": true,
                "type": "boolean"
            },
            "useCookie": {
                "doc": "Should cookies be used to store user language.",
                "type": "boolean"
            },
            "fontFamily": {
                "doc": "Top level font familiy for Captions text.",
                "type": "enum",
                "initvalue": "Arial",
                "enum": [
                    "Arial",
                    "Arial Narrow",
                    "Arial Black",
                    "Bookman Old Style",
                    "Century Gothic",
                    "Comic Sans MS",
                    "Consolas",
                    "Courier New",
                    "Constantia,Georgia",
                    "Helvetica,Arial",
                    "Impact",
                    "Lucida Sans Unicode",
                    "Cambria",
                    "symbol",
                    "Tahoma",
                    "Cambria",
                    "Times New Roman",
                    "Trebuchet MS",
                    "Verdana,Geneva",
                    "DejaVu Sans",
                    "Webdings,fantasy",
                    "Wingdings,fantasy",
                    "Monotype Corsiva",
                    "Monotype Sorts"
                ]
            },
            "fontsize": {
                "doc": "Captions font size.",
                "label": "Font size",
                "initvalue": 12,
                "type": "number"
            },
            "fontColor": {
                "doc": "Color of the caption text.",
                "initvalue": "#000000",
                "type": "color"
            },
            "bg": {
                "doc": "Background color for timed text.",
                "label": "Background color",
                "initvalue": "#ffffff",
                "type": "color"
            },
            "useGlow": {
                "doc": "If the timed text should have a glow / shadow.",
                "initvalue": false,
                "type": "boolean"
            },
            "glowBlur": {
                "doc": "The glow amount in pixels.",
                "initvalue": 0,
                "type": "number"
            },
            "glowColor": {
                "doc": "The color of the glow.",
                "initvalue": "#ffffff",
                "type": "color"
            },
            "defaultLanguageKey": {
                "doc": "The default language key for the player.",
                "type": "text"
            },
            "hideWhenEmpty": {
                "doc": "If the caption button should be hidden when no captions are available for the current entry.",
                "type": "boolean"
            },
            "showEmbeddedCaptions": {
                "doc": "Show captions embedded in the video file.",
                "type": "boolean",
                "initvalue": false
            }
        }
    },
    "custom1BtnControllerScreen": {
        "description": "Custom on screen button."
    },
    "controlBarContainer": {
        "description": "Control bar container, contains all the player controls.",
        "attributes": {
            "hover": {
                "doc": "If the controls should hover on the player, or not.",
                "type": "boolean"
            }
        }
    },
    "audioDescription": {
        "description": "Audio description tracks, supports associating an audio file to be played at the same time as the video.",
        "attributes": {
            "file": {
                "doc": "The URL or custom data mapping to URL for the audio description track.",
                "type": "string"
            }
        }
    },
    "loadingSpinner": {
        "description": "Loading spinner options allows you to customize the look of the loading spinner.",
        "attributes": {
            "imageUrl": {
                "doc": "An image URL, to use as the loading spinner. By default it is null. If a URL is provided, it will replace the dynamic loading spinner.",
                "type": "url",
                "initvalue": ""
            },
            "lines": {
                "doc": "The number of lines to draw, 11 by default.",
                "type": "number",
                "initvalue": 10
            },
            "lineLength": {
                "doc": "The length of each line, 10 pixels by default.",
                "type": "number",
                "initvalue": 10
            },
            "width": {
                "doc": "The line thickness, 6 pixels thick by default.",
                "type": "number",
                "initvalue": 6
            },
            "radius": {
                "doc": "The radius of the inner circle, 12 pixels thick by default.",
                "type": "number",
                "initvalue": 12
            },
            "corners": {
                "doc": "Corner roundness (0..1), default 1 for fully rounded corners.",
                "type": "number",
                "initvalue": 1
            },
            "rotate": {
                "doc": "The rotation offset, 0 by default.",
                "type": "number",
                "initvalue": 0
            },
            "direction": {
                "doc": "1: clockwise, -1: counterclockwise, clockwise by default.",
                "type": "number",
                "allowNegative": true,
                "initvalue": 1
            },
            "color": {
                "doc": "An array of RGB colors delimited by |, or a single RGB style color string. By default uses the color wheel.",
                "type": "string",
                "initvalue": "rgb(0,154,218)|rgb(255,221,79)|rgb(0,168,134)|rgb(233,44,46)|rgb(181,211,52)|rgb(252,237,0)|rgb(0,180,209)|rgb(117,192,68)|rgb(232,44,46)|rgb(250,166,26)|rgb(0,154,218)|rgb(232,44,46)|rgb(255,221,79)|rgb(117,192,68)|rgb(232,44,46)"
            },
            "speed": {
                "doc": "Rounds per second, default 1.6.",
                "type": "float",
                "initvalue": 1.6
            },
            "trail": {
                "doc": "Afterglow percentage. 100 by default.",
                "type": "number",
                "initvalue": 100
            },
            "shadow": {
                "doc": "Whether to render a shadow, false by default.",
                "type": "boolean",
                "initvalue": false
            },
            "className": {
                "doc": "The CSS class to assign to the spinner, default 'spinner'.",
                "type": "hiddenValue",
                "initvalue": "spinner"
            },
            "zIndex": {
                "doc": "The z-index (defaults to 2000000000).",
                "label": "Z-index",
                "type": "hiddenValue",
                "initvalue": 2000000000
            },
            "top": {
                "doc": "Top position relative to parent in px, auto by default.",
                "type": "string",
                "initvalue": "auto"
            },
            "left": {
                "doc": "Left position relative to parent in px, auto by default.",
                "type": "string",
                "initvalue": "auto"
            }
        }
    },
    "carousel": {
        "description": "Displays an on-screen list of clips in the carousel. When playing the list is hidden, when paused it is displayed",
        "attributes": {
            "playlist_id": {
                "doc": "The id of the playlist to be displayed",
                "type": "string"
            }
        }
    },
    "playlistAPI": {
        "description": "The Kaltura playlist plugin, supports associating multiple clips in sequence.",
        "label": "Playlist Configuration",
        "attributes": {
            "containerPosition": {
                "doc": "Position of the playlist.",
                "label": "Position",
                "type": "enum",
                "initvalue": "right",
                "enum": [
                    "left",
                    "right",
                    "top",
                    "bottom"
                ],
                "options": [
                    {
                        "label": "Left of the video",
                        "value": "left"
                    },
                    {
                        "label": "Right of the video",
                        "value": "right"
                    },
                    {
                        "label": "Above the video",
                        "value": "top"
                    },
                    {
                        "label": "Below the video",
                        "value": "bottom"
                    }
                ]
            },
            "layout": {
                "doc": "Playlist layout.",
                "type": "enum",
                "initvalue": "vertical",
                "enum": [
                    "vertical",
                    "horizontal"
                ],
                "options": [
                    {
                        "label": "Vertical playlist",
                        "value": "vertical"
                    },
                    {
                        "label": "Horizontal playlist",
                        "value": "horizontal"
                    }
                ]
            },
            "includeInLayout": {
                "doc": "Include clip list in the display.",
                "type": "boolean",
                "initvalue": true
            },
            "showControls": {
                "doc": "Display Next / Previous buttons.",
                "type": "boolean",
                "initvalue": true
            },
            "autoContinue": {
                "doc": "If the playlist should autocontinue.",
                "type": "boolean"
            },
            "autoPlay": {
                "doc": "If the playlist should autoplay on load.",
                "type": "boolean"
            },
            "loop": {
                "doc": "If the playlist should loop.",
                "type": "boolean"
            },
            "hideClipPoster": {
                "doc": "Hide clip poster when switching to another clip.",
                "type": "boolean",
                "initvalue": true
            },
            "onPage": {
                "label": "Render on publisher's page",
                "doc": "When unchecked, the playlist will be rendered inside the player's iframe (recommended).",
                "type": "boolean"
            },
            "MinClips": {
                "doc": "Minimum number of clips to show in the playlist without scrolling.",
                "type": "number",
                "initvalue": 2
            },
            "MaxClips": {
                "doc": "Max number of clips to show in the playlist.",
                "type": "number",
                "initvalue": 25
            },
            "initItemEntryId": {
                "doc": "The entryId that should be played first."
            },
            "kpl0Url": {
                "doc": "The playlist URL. (can be a Kaltura playlist service or MRSS)",
                "type": "hiddenValue"
            },
            "kpl0Id": {
                "doc": "The kaltura playlist Id",
                "type": "hiddenValue"
            },
            "kpl0Name": {
                "doc": "The name of the playlist.",
                "type": "hiddenValue"
            },
            "kpl1Url": {
                "doc": "The N playlist URL.",
                "type": "hiddenValue"
            },
            "kpl1Name": {
                "doc": "The name of the indexed playlist.",
                "type": "hiddenValue"
            },
            "additionalPlaylists": {
                "doc": "Additional playlists.",
                "type": "additionalPlaylists"
            }
        }
    },
    "localizationCode": {
        "description": "Set the language of the Kaltura player user interface. Supports language code or <b>auto</b> to take the browser\r\n\t\trequested language from JavaScript vars.",
        "doc": "language code, or \"auto\" for browser content language preference",
        "type": "string"
    },
    "imageDefaultDuration": {
        "doc": "The duration image entries should be displayed.",
        "type": "number"
    },
    "requiredMetadataFields": {
        "doc": "If metadata should be loaded into the player.",
        "type": "boolean"
    },
    "metadataProfileId": {
        "doc": "The metadata profile ID to be used for custom player metadata. <br>  If unset, will use the latest metadata ID added to that player. It is best to point it at a particular metadata profile ID.<br>It Will pouplate {mediaProxy.entryMetadata} with the associated custom data.",
        "type": "number"
    },
    "externalInterfaceDisabled": {
        "doc": "The external interface disabled flag.",
        "type": "boolean",
        "hideEdit": true
    },
    "playbackRateSelector": {
        "description": "Enables users to select the video playback rate. Note http streamerType must be used to support playbackRateSelector in capable HTML5 browsers.",
        "attributes": {
            "defaultSpeed": {
                "doc": "The default speed of the player.",
                "initvalue": 1,
                "type": "number"
            },
            "speeds": {
                "doc": "The set of selectable speeds, where 1 = 100% speed. Seperated by commas.",
                "label": "Selectable speeds",
                "type": "numbersArray"
            }
        }
    },
    "streamSelector": {
        "description": "Enables users to select the video playback stream out of a selection of streams.",
        "attributes": {
            "defaultStream": {
                "doc": "The default stream.",
                "initvalue": 1,
                "type": "number"
            },
            "enableKeyboardShortcuts": {
                "doc": "Enable keyboard shortcuts (Key mappings: \"[\" - Next, \"]\" - Previous, \"\\\" - Default)",
                "initvalue": true,
                "type": "boolean"
            }
        }
    },
    "flavorComboControllerScreen": {
        "description": "The Kaltura flavor selector plugin."
    },
    "audioSelector": {
        "description": "Enables users to select from audio tracks active in the stream."
    },
    "sourceSelector": {
        "description": "Enables users to select the video quality.",
        "attributes": {
            "switchOnResize": {
                "doc": "When the player changes size or goes into fullscreen,\r\n\t\t\t\t\tthe source will update per playback resolution. By default, the embed size \r\n\t\t\t\t\tis only taken into consideration at startup.",
                "type": "boolean",
                "initvalue": false
            },
            "simpleFormat": {
                "doc": "Use simple format to restrict to two sources only per named size, and not list content type.",
                "type": "boolean",
                "initvalue": true
            },
            "displayMode": {
                "doc": "Configure the display mode to set the type of information to display in the source selector's menu: size, bit-rate or both.",
                "type": "enum",
                "enum": [
                  "size",
                  "bitrate",
                  "sizebitrate"
                ],
                "initvalue": "size",
                "options": [
                  {
                    "label": "Size",
                    "value": "size"
                  },
                  {
                    "label": "Bit-rate",
                    "value": "bitrate"
                  },
                  {
                    "label": "Size and bit-rate",
                    "value": "sizebitrate"
                  }
                ]
            }
        }
    },
    "uiVars": {
        "description": "Allows you to add UI variables to the player configuration.",
        "label": "UI Variables",
        "attributes": {
            "vars": {
                "doc": "List of UI variables",
                "label": "UI variables",
                "type": "uivars",
                "model": "vars"
            }
        }
    },
    "download": {
        "description": "Enables users to add a download button to the player controls.\r\n\t\t\tThe download button will enable users to download the media to a local file.",
        "attributes": {
            "parent": {
                "doc": "Parent container for component. Components include default placement, leave as null if unsure.",
                "type": "enum",
                "enum": [
                    "topBarContainer",
                    "videoHolder",
                    "controlsContainer"
                ],
                "options": [
                    {
                        "label": "Top bar container",
                        "value": "topBarContainer"
                    },
                    {
                        "label": "Controls container",
                        "value": "controlsContainer"
                    }
                ],
                "initvalue": "topBarContainer"
            },
            "align": {
                "doc": "Alignment for component, can be left or right.",
                "type": "enum",
                "enum": [
                    "left",
                    "right"
                ],
                "initvalue": "right",
                "options": [
                    {
                        "label": "Left",
                        "value": "left"
                    },
                    {
                        "label": "Right",
                        "value": "right"
                    }
                ]
            },
            "order": {
                "doc": "Draw order of the component within the container.\r\n\t\t\tTogether with alignment, determines component placement of the component. Order is set with respect to siblings on the parent container.",
                "type": "number"
            },
            "flavorID": {
                "label": "Flavor ID",
                "doc": "Flavor ID for the downloaded movie source. When specified, overrides any preferred bitrate settings",
                "type": "string",
                "initvalue": ""
            },
            "preferredBitrate": {
                "label": "Preferred bitrate",
                "doc": "Preferred bitrate for the downloaded movie source (when Flavor ID is not specified). Keep empty for the highest bitrate. Enter '0' for the original movie source file",
                "type": "string",
                "initvalue": ""
            },
            "downloadName": {
                "label": "Download name",
                "doc" : "Defines the name of the downloaded file",
                "type": "string",
                "initvalue": ""
            },
            "flavorParamsId": {
                "label": "Preferred params id",
                "doc" : "Defines the flavor params id, from the transcoding settings",
                "type": "number",
                "initvalue": ""
            }
        }
    },
    "docPlayToFrom": {
        "description": "The playFrom and playTo attributes enable building a preview of a segment of content.",
        "hideEdit": true
    },
    "mediaProxy.mediaPlayFrom": {
        "doc": "The start time for the video playback.",
        "type": "number"
    },
    "mediaProxy.mediaPlayTo": {
        "doc": "The time in seconds, for the video playback to end.",
        "type": "number"
    },
    "mediaProxy.preferedFlavorBR": {
        "doc": "The initial bitrate to be selected.",
        "type": "number"
    },
    "mediaProxy":{
      "description": "To override mediaProxy object.",
      "attributes": {
         "entryCuePoints":{
             "doc":"To override entry supplied cuePoints.",
             "type": "json"
         }
      }
    },
    "segmentScrubber.plugin": {
        "doc": "Virtaulzies the playhead to selected segment of time.",
        "type": "boolean"
    },
    "deliveryCode": {
        "doc": "The deliveryCode is passed along as part of a domain prefix into the stream URL. (can be used for per-embed URL billing categorization)",
        "type": "string"
    },
    "controlsHolder": {
        "description": "The controlsHolder enables you to hide or show the control bar.",
        "attributes": {
            "visible": {
                "doc": "If the control holder should be visible.",
                "type": "boolean"
            },
            "height": {
                "doc": "Height of the controls holder.",
                "type": "number"
            }
        }
    },
    "ControllerScreenHolder": {
        "description": "The control bar holder.",
        "attributes": {
            "visible": {
                "doc": "If the control screen holder should be visible.",
                "type": "boolean"
            }
        }
    },
    "scrubber": {
        "description": "The playhead scrubber.",
        "attributes": {
            "parent": {
                "doc": "The holder for the playhead scrubber. If set to controlsContainer,\r\n\t\t\t\t\twill be inline with the other control buttons.\r\n\t\t\t\t\tIf set to controlsBarContainer,will take a full horizontal line",
                "type": "enum",
                "enum": [
                    "controlsBarContainer",
                    "controlsContainer"
                ]
            },
            "minWidth": {
                "doc": "The minimum width of the playhead. If the min-width is reached, normal responsive display importance removal rules come into effect.",
                "type": "number"
            },
            "sliderPreview": {
                "doc": "Show a preview thumbnail with the current time when mouse is over the scrubber",
                "type": "boolean",
                "initvalue": true
            },
            "showOnlyTime": {
                "doc": "Show only the time when mouse is over the scrubber",
                "type": "boolean",
                "initvalue": false
            }
        }
    },
    "segmentScrubber": {
        "description": "<b>Playhead Segment</b> enables setting start and end times of a larger stream. <br>\r\nThe playhead reflects segment time as if it was the natural stream length.",
        "attributes": {
            "plugin": {
                "type": "boolean"
            }
        }
    },
    "logo": {
        "description": "The custom logo plugin.",
        "featureCheckbox": true,
        "attributes": {
            "img": {
                "label": "Logo image URL",
                "doc": "URL for custom control bar logo image.",
                "type": "url"
            },
            "href": {
                "label": "Logo link",
                "doc": "URL for the control bar logo to click through to.",
                "type": "url",
                "initvalue": "http://www.streamamg.com"
            },
            "title": {
                "doc": "Title tooltip for the logo",
                "type": "string",
                "initvalue": "Media Platform"
            },
            "cssClass": {
                "doc": "An additional class to add to the logo. Can be used for CSS based custom logo image.",
                "type": "hiddenValue"
            }
        }
    },
    "mylogo": {
        "description": "The Kaltura custom logo plugin.",
        "attributes": {
            "watermarkPath": {
                "doc": "URL path to plugin image. For default controls height, logo can be 20 by 20 pixel png.",
                "type": "url"
            },
            "watermarkClickPath": {
                "doc": "URL for plugin click.",
                "type": "url"
            }
        }
    },
    "theme": {
        "description": "Theme CSS style.",
        "featureCheckbox": true,
        "label": "Custom styles",
        "attributes": {
            "applyToLargePlayButton": {
                "type": "boolean",
                "player-refresh": "theme.applyToLargePlayButton",
                "initvalue": true
            },
            "buttonsSize": {
                "label": "Button's size",
                "doc": "Button's size",
                "type": "number",
                "player-refresh": "theme.buttonsSize",
                "initvalue": 12,
                "from": 2,
                "to": 100,
                "stepsize": 1,
                "numberOfDecimals": 0
            },
            "buttonsColor": {
                "label": "Button's color",
                "initvalue": "#000000",
                "player-refresh": "theme.buttonsColor",
                "doc": "Button's color. Note: using transparency will disable this color setting in Internet Explorer 8",
                "alpha": true,
                "type": "color"
            },
            "buttonsIconColor": {
                "label": "Button's icon color",
                "initvalue": "#ffffff",
                "player-refresh": "theme.buttonsIconColor",
                "doc": "Button's icon color",
                "type": "color"
            },
            "sliderColor": {
                "label": "Slider color",
                "initvalue": "#333333",
                "player-refresh": "theme.sliderColor",
                "doc": "Slider color",
                "type": "color"
            },
            "scrubberColor": {
                "label": "Scrubber color",
                "initvalue": "#ffffff",
                "player-refresh": "theme.scrubberColor",
                "doc": "Scrubber color",
                "type": "color"
            },
            "controlsBkgColor": {
                "label": "Controls bar color",
                "initvalue": "#000000",
                "player-refresh": "theme.controlsBkgColor",
                "doc": "Controls bar color",
                "type": "color"
            },
            "watchedSliderColor": {
                "label": "Slider watched color",
                "initvalue": "#2ec7e1",
                "player-refresh": "theme.watchedSliderColor",
                "doc": "Slider watched color",
                "type": "color"
            },
            "bufferedSliderColor": {
                "label": "Slider buffer color",
                "initvalue": "#AFAFAF",
                "player-refresh": "theme.bufferedSliderColor",
                "doc": "Slider buffer color",
                "type": "color"
            },
            "timeLabelColor": {
                "label": "Time label color",
                "initvalue": "#ffffff",
                "player-refresh": "theme.timeLabelColor",
                "doc": "Time label color",
                "type": "color"
            },
            "buttonsIconColorDropShadow": {
                "label": "Apply drop shadow to icons",
                "initvalue": true,
                "player-refresh": "theme.buttonsIconColorDropShadow",
                "doc": "Apply drop shadow to icons",
                "type": "boolean"
            },
            "dropShadowColor": {
                "label": "Drop shadow color",
                "doc": "Drop shadow color",
                "type": "hiddenValue"
            }
        }
    },
    "share": {
        "featureCheckbox": true,
        "description": "Add the share interface to the player.",
        "type": "featuremenu",
        "label": "Share and Embed",
        "model": "config.plugins.share",
        "attributes": {
            "parent": {
                "doc": "Parent container for component. Components include default placement, leave as null if unsure.",
                "type": "enum",
                "enum": [
                    "topBarContainer",
                    "videoHolder",
                    "controlsContainer"
                ],
                "options": [
                    {
                        "label": "Top bar container",
                        "value": "topBarContainer"
                    },
                    {
                        "label": "Controls container",
                        "value": "controlsContainer"
                    }
                ],
                "initvalue": "topBarContainer"
            },
            "align": {
                "doc": "Alignment for component, can be left or right.",
                "type": "enum",
                "enum": [
                    "left",
                    "right"
                ],
                "initvalue": "right",
                "options": [
                    {
                        "label": "Left",
                        "value": "left"
                    },
                    {
                        "label": "Right",
                        "value": "right"
                    }
                ]
            },
            "order": {
                "doc": "Draw order of the component within the container.\r\n\t\t\tTogether with alignment, determines component placement of the component. Order is set with respect to siblings on the parent container.",
                "type": "number"
            },
            "socialShareURL": {
                "doc": "<p style='text-align: left'>Allows you to define the URL shared for this player:</p>\r\n\t\t\t\t\t\t<ul style='text-align: left'>\r\n\t\t\t\t\t\t\t<li><b>smart</b> will maximize inline social sharing playback, by using the\r\n\t\t\t\t\t\t\t\tpage URL or Kaltura URL, and depend on whether opengraph tags are present on the page</li>\r\n\t\t\t\t\t\t\t<li><b>parent</b> will share the parent page URL.</li>\r\n\t\t\t\t\t\t\t<li><b>http://my-custom-domain.com/?v={mediaProxy.entry.id}</b> a custom URL with magic substitution can also be used.</li>\r\n\t\t\t\t\t\t</ul>",
                "type": "string",
                "initvalue": "smart"
            },
            "socialNetworks": {
                "doc": "Define included networks, separate by commas. Currently share supports facebook, twitter, googleplus.",
                "type": "string",
                "initvalue": "facebook,twitter,googleplus,email,linkedin,sms"
            },
            "socialShareEnabled": {
                "doc": "Display Share link.",
                "initvalue": true,
                "type": "boolean"
            },
            "embedEnabled": {
                "doc": "Display Embed code.",
                "initvalue": true,
                "type": "boolean"
            },
            "embedCodeTemplate":{
                "doc": "Enables the customization of the embed code template, leave empty to use iframe default.",
                "initvalue": "",
                "type": "hiddenValue"
            },
            "allowTimeOffset": {
                "doc": "Allow setting a time offset for the entry.",
                "initvalue": true,
                "type": "boolean"
            },
            "allowSecuredEmbed": {
                "doc": "Display secured embed option.",
                "initvalue": true,
                "type": "boolean"
            },
            "emailEnabled": {
                "doc": "Display Email in the share options.",
                "initvalue": true,
                "type": "boolean"
            },
            "shareUiconfID": {
                "doc": "Specify a UIConf ID for the shared link. Leave empty to use the current UIConf.",
                "initvalue": "",
                "type": "string"
            },
            "shareConfig": {
                "doc": "Configuration options for all share networks.",
                "initvalue": {
                    "facebook": {
                        "name": "Facebook",
                        "icon": "",
                        "cssClass": "icon-share-facebook",
                        "template": "https://www.facebook.com/sharer/sharer.php?u={share.shareURL}",
                        "redirectUrl": "fb://feed/"
                    },
                    "twitter": {
                        "name": "Twitter",
                        "icon": "",
                        "cssClass": "icon-share-twitter",
                        "template": "https://twitter.com/share?url={share.shareURL}",
                        "redirectUrl": "https://twitter.com/intent/tweet/complete?,https://twitter.com/intent/tweet/update"
                    },
                    "googleplus": {
                        "name": "Google+",
                        "icon": "",
                        "cssClass": "icon-share-google",
                        "template": "https://plus.google.com/share?url={share.shareURL}",
                        "redirectUrl": "https://plus.google.com/app/basic/stream"
                    },
                    "email": {
                        "name": "Email",
                        "icon": "",
                        "cssClass": "icon-share-email",
                        "template": "mailto:?subject=Check out {mediaProxy.entry.name}&body=Check out {mediaProxy.entry.name}: {share.shareURL}",
                        "redirectUrl": ""
                    },
                    "linkedin": {
                        "name": "LinkedIn",
                        "icon": "",
                        "cssClass": "icon-share-linkedin",
                        "template": "http://www.linkedin.com/shareArticle?mini=true&url={share.shareURL}",
                        "redirectUrl": ""
                    },
                    "sms": {
                        "name": "SMS",
                        "icon": "",
                        "cssClass": "icon-share-sms",
                        "template": "Check out {mediaProxy.entry.name}: {share.shareURL}",
                        "redirectUrl": ""
                    }
                },
                "type": "json"
            },
            "embedOptions": {
                "doc": "Embed code configuration options.",
                "initvalue": {
                    "streamerType": "auto",
                    "uiconfID": "",
                    "width": 560,
                    "height": 395,
                    "borderWidth": 0
                },
                "type": "json"
            }
        }
    },
    "watermark": {
        "featureCheckbox": true,
        "description": "The watermark plugin",
        "type": "featuremenu",
        "label": "Watermark",
        "model": "config.plugins.watermark",
        "attributes": {
            "watermarkPosition": {
                "model": "config.plugins.watermark.cssClass",
                "label": "Position",
                "doc": "Position of the watermark.",
                "type": "enum",
                "enum": [
                    "topRight",
                    "topLeft",
                    "bottomRight",
                    "bottomLeft"
                ],
                "initvalue": "topLeft",
                "options": [
                    {
                        "label": "Top Right",
                        "value": "topRight"
                    },
                    {
                        "label": "Top Left",
                        "value": "topLeft"
                    },
                    {
                        "label": "Bottom Right",
                        "value": "bottomRight"
                    },
                    {
                        "label": "Bottom Left",
                        "value": "bottomLeft"
                    }
                ]
            },
            "watermarkPath": {
                "label": "Image URL",
                "model": "config.plugins.watermark.img",
                "doc": "The URL path to the watermark image.",
                "initvalue": "",
                "type": "url"
            },
            "watermarkClickPath": {
                "label": "Click URL",
                "model": "config.plugins.watermark.href",
                "doc": "The URL for the watermark click.",
                "initvalue": "",
                "type": "url"
            },
            "hideTimeout": {
                "label": "Watermark display duration",
                "doc": "Number of seconds to display the watermark, 0 show always.",
                "min": 0,
                "initvalue": 0,
                "type": "number",
                "max": 1000
            },
            "padding": {
                "label": "Padding CSS",
                "doc": "Padding CSS property from the edge of the play screen; top right bottom left, or single value.",
                "type": "number",
                "initvalue": 10,
                "from": 0,
                "to": 100,
                "stepsize": 1,
                "numberOfDecimals": 0
            }
        }
    },
    "nextPrevBtn": {
        "featureCheckbox": true,
        "description": "Playlist 'Next' and 'Previous' buttons",
        "type": "featuremenu",
        "label": "Playlist controls",
        "model": "config.plugins.nextPrevBtn",
        "attributes": {
            "parent": {
                "doc": "Parent container for component. Components include default placement, leave as null if unsure.",
                "type": "enum",
                "enum": [
                    "topBarContainer",
                    "videoHolder",
                    "controlsContainer"
                ],
                "options": [
                    {
                        "label": "Top bar container",
                        "value": "topBarContainer"
                    },
                    {
                        "label": "Controls container",
                        "value": "controlsContainer"
                    }
                ],
                "initvalue": "controlsContainer"
            }
        }
    },
    "playbackContext": {
        "doc": "The playback context sent to Kaltura analytics."
    },
    "originFeature": {
        "doc": "The featureType var sent to Kaltura analytics."
    },
    "applicationName": {
        "doc": "For registering the application with Kaltura analytics."
    },
    "userId": {
        "doc": "For associating a userId with Kaltura analytics."
    },
    "myExternalResourcesPlugin": {
        "description": "The external resources attributes can be applied to a custom plugin by any name. All number keys can be incremneted to load more resources. i.e onPageJs1 onPageJs2 onPageJs3 etc.",
        "attributes": {
            "onPageJs1": {
                "doc": "An onPage javascript file is loaded on the client page. More about <a href=\"http://html5video.org/wiki/Kaltura_OnPage_Plugins\">onPage plugins</a>",
                "type": "url"
            },
            "onPageCss1": {
                "doc": "An onPage CSS file is loaded on the client page. More about <a href=\"http://html5video.org/wiki/Kaltura_OnPage_Plugins\">onPage plugins</a>",
                "type": "url"
            },
            "iframeHTML5Js1": {
                "doc": "Javascript to be loaded inside the iframe. More about <a href=\"http://html5video.org/wiki/Developing_Kaltura_HTML5_Plugins\">html5 iframe plugins</a>",
                "type": "url"
            },
            "iframeHTML5Css": {
                "doc": "CSS to be loaded inside the iframe. More about <a href=\"http://html5video.org/wiki/Developing_Kaltura_HTML5_Plugins\">html5 iframe plugins</a>",
                "type": "url"
            }
        }
    },
    "userAgentPlayerRules": {
        "description": "Sets player default by user agent rules.",
        "attributes": {
            "disableForceMobileHTML5": {
                "doc": "Disable the forceMobileHTML5 URL flag. This prevents showing the HTML5 player via the URL flag.",
                "type": "boolean"
            },
            "r1RegMatch": {
                "doc": "First rule, RegMatch postfix means the rule is a regular expression.",
                "type": "string"
            },
            "r1LeadWithHTML5": {
                "doc": "Lead with HTML5 action to take for matching the first rule.",
                "type": "boolean"
            },
            "r2Match": {
                "doc": "Second rule, Match postfix means the rule is a simple string search.",
                "type": "string"
            },
            "r2ForceFlash": {
                "doc": "Force Flash action to take for matching the second rule.",
                "type": "boolean"
            },
            "r3Match": {
                "doc": "Third rule, Match postfix means the rule is a simple string search.",
                "type": "string"
            },
            "r3ForceMsg": {
                "doc": "Force Msg, displays the HTML for matching the third rule. HTML should be escaped.",
                "type": "string"
            },
            "r4RegMatch": {
                "doc": "Fourth rule,  RegMatch postfix means the rule is a regular expression.",
                "type": "string"
            },
            "r4LeadWithHTML5": {
                "doc": "Fourth action, LeadWithHTML5 means lead with HTML5 for fourth rule match "
            }
        }
    },
    "IframeCustomPluginJs1": {
        "doc": "URL for the javascript to be loaded in the iframe.",
        "type": "url"
    },
    "IframeCustomPluginCss1": {
        "doc": "URL for the CSS to be loaded in the iframe.",
        "type": "url"
    },
    "onPageJs1": {
        "doc": "URL for the javascript to be loaded on the embedding page.",
        "type": "url"
    },
    "onPageCss1": {
        "doc": "URL for CSS to be loaded on the embedding page.",
        "type": "url"
    },
    "enableControlsDuringAd": {
        "doc": "If true, play pause button will be active during ad playback",
        "type": "boolean"
    },
    "adsOnReplay": {
        "doc": "true for showing ads in replay, false to skip ads in replay.",
        "type": "boolean"
    },
    "bumper": {
        "description": "Bumpers, enables a MP entry to be displayed before or after the content.",
        "attributes": {
            "bumperEntryID": {
                "doc": "The entry id of the bumper to be played",
                "type": "entrySelector",
                "configObject": "entriesSelectBox",
                "model": "config.plugins.bumper.bumperEntryID",
                "helpnote": "Bumper entry ID",
                "filter": "entry",
                "initvalue": ""
            },
            "clickurl": {
                "doc": "The URL to open when the user clicks the bumper video.",
                "label": "Click URL",
                "type": "url"
            },
            "preSequence": {
                "doc": "The preSequence number for sequencing the bumper before or after ads before content. Also can be set to zero and set postSequence to 1, to have the bumper play after the content",
                "label": "Pre-sequence index",
                "initvalue": 1,
                "type": "number"
            },
            "postSequence": {
                "doc": "The postSequence number for sequencing the bumper before or after ads after content. Also can be set to zero and set preSequence to 1, to have the bumper play before the content",
                "label": "Post-sequence index",
                "initvalue": 1,
                "type": "number"
            }
        }
    },
    "skipBtn": {
        "label": "Skip button",
        "description": "Vast / DoubleClick skip button settings",
        "attributes": {
            "skipBtn": {
                "doc": "Skip button label.",
                "label": "Skip button label",
                "initvalue": "Skip Ad",
                "model": "config.plugins.skipBtn.label",
                "type": "string"
            },
            "skipOffset": {
                "doc": "The time in seconds, before the skip ad link is active.",
                "type": "number",
                "min": 0,
                "initvalue": 5,
                "max": 30
            }
        }
    },
    "skipNotice": {
        "label": "Skip notice",
        "description": "Vast / DoubleClick skip notice",
        "attributes": {
            "text": {
                "doc": "Skip notice text (can use evaluated expressions)",
                "label": "Skip notice text",
                "initvalue": "You can skip this ad in {sequenceProxy.skipOffsetRemaining} seconds",
                "model": "config.plugins.skipNotice.text",
                "type": "string"
            }
        }
    },
    "noticeMessage": {
        "label": "Notice message",
        "description": "Vast / DoubleClick notice message",
        "attributes": {
            "text": {
                "doc": "Notice message (can use evaluated expressions)",
                "label": "Notice message",
                "initvalue": "Advertisement: Video will resume in {sequenceProxy.timeRemaining} seconds",
                "model": "config.plugins.noticeMessage.text",
                "type": "string"
            }
        }
    },
    "vast": {
        "label": "Vast",
        "endline": "true",
        "type": "menu",
        "sections": {
            "type": "tabs",
            "tabset": [
                {
                    "label": "Preroll",
                    "active": true,
                    "key": "pre",
                    "children": [

                    ]
                },
                {
                    "label": "Overlay",
                    "key": "over",
                    "children": [

                    ]
                },
                {
                    "label": "Postroll",
                    "key": "post",
                    "children": [

                    ]
                },
                {
                    "label": "Comp.",
                    "key": "comp",
                    "children": [

                    ]
                }
            ],
            "title": "Configuration"
        },
        "description": "Media Platform player features robust VAST support for prerolls, midrolls, overlays, companions and postrolls",
        "attributes": {
            "prerollUrl": {
                "doc": "The VAST ad tag XML URL.",
                "label": "Preroll URL",
                "type": "url",
                "section": "pre"
            },
            "prerollUrlJs": {
                "doc": "The VAST ad tag URL used where platform does not support flash. If undefined all platforms will use the base prerollUrl for ad requests.",
                "label": "Preroll JS URL",
                "type": "url",
                "section": "pre"
            },
            "numPreroll": {
                "label": "Preroll(s) amount",
                "doc": "The number of prerolls to be played.",
                "type": "number",
                "section": "pre",
                "min": 0,
                "initvalue": 1,
                "max": 5
            },
            "prerollStartWith": {
                "label": "Number of prerolls to start with.",
                "doc": "Number of prerolls to start with.",
                "type": "number",
                "section": "pre",
                "min": 0,
                "initvalue": 0,
                "max": 5
            },
            "prerollInterval": {
                "label": "Preroll interval.",
                "doc": "How often to show prerolls",
                "type": "number",
                "section": "pre",
                "min": 0,
                "initvalue": 0,
                "max": 5
            },
            "preSequence": {
                "label": "VAST pre-sequence index",
                "doc": "The VAST preSequence index. For example,1 for ads then 2 for a bumper plugin; would result in ad then bumper.",
                "type": "number",
                "section": "pre",
                "min": 0,
                "max": 5,
                "initvalue": 0
            },
            "postrollUrl": {
                "label": "Postroll URL",
                "doc": "The vast ad tag xml url",
                "type": "url",
                "section": "post"
            },
            "postrollUrlJs": {
                "doc": "The VAST ad tag URL used where platform does not support flash.\r\n\t\t\tIf undefined all platforms will use the base postrollUrl for ad requests.",
                "label": "Postroll JS URL",
                "type": "url",
                "section": "post"
            },
            "numPostroll": {
                "label": "Postroll(s) amount",
                "doc": "The number of prerolls to be played.",
                "type": "number",
                "section": "post",
                "min": 0,
                "initvalue": 1,
                "max": 5
            },
            "postrollStartWith": {
                "doc": "Number of postrolls to start with.",
                "label": "Number of postrolls to start with",
                "type": "number",
                "section": "post",
                "min": 0,
                "initvalue": 0,
                "max": 5
            },
            "postrollInterval": {
                "doc": "How often to show postrolls.",
                "type": "number",
                "section": "post",
                "min": 0,
                "initvalue": 0,
                "max": 5
            },
            "postSequence": {
                "label": "VAST post-sequence index",
                "doc": "The VAST post-Sequence index. For example, 1 for ads then 2 for a bumper plugin; would result in ad then bumper.",
                "type": "number",
                "section": "post",
                "min": 0,
                "initvalue": 0,
                "max": 5
            },
            "htmlCompanions": {
                "label": "HTML Companions",
                "doc": "Companions list. For each companion please specify the ad container div id and the expected ad width and height.",
                "type": "companions",
                "section": "comp",
                "filter": "companions",
                "initvalue": "Comp_300x250:300:250;Comp_728x90:728:90;"
            },
            "overlayUrl": {
                "label": "Overlay URL",
                "section": "over",
                "doc": "The VAST XML file that contains the overlay media and tracking info.",
                "type": "url"
            },
            "overlayStartAt": {
                "label": "Overlay start time.",
                "doc": "Start time (in seconds) for overlay.",
                "type": "number",
                "section": "over",
                "min": 0,
                "initvalue": 5,
                "max": 10000
            },
            "overlayInterval": {
                "doc": "How often should the overlay be displayed.",
                "type": "number",
                "section": "over",
                "from": 0,
                "stepsize": 1,
                "to": 500,
                "initvalue": 300
            },
            "timeout": {
                "doc": "The timeout in seconds, for displaying an overlay VAST ad. If the VAST XML specifies the minSuggestedDuration attribute, this property will be ignored.",
                "type": "number",
                "section": "over",
                "min": 0,
                "initvalue": 5,
                "max": 1000
            },
            "trackCuePoints": {
                "doc": "If entry cuepoints should be tracked for midroll ad requests.",
                "type": "boolean"
            },
            "allowSeekWithNativeControls": {
                "doc": "It allows to catch seek requests during ads and return the player to original play time..",
                "type": "boolean"
            },
            "storeSession": {
                "doc": "If the frequency playback should be stored across player reloads.\r\n\t\t\t\t\tBy default, only playlists respect frequency intervals.\r\n\t\t\t\t\tIf set to true, the prerollInterval will be respected across player views.",
                "type": "boolean",
                "initvalue": false
            },
            "pauseAdOnClick": {
                "doc": "If the ad should pause when clicked.",
                "type": "boolean",
                "initvalue": true
            },
            "enableCORS": {
                "doc": "Enable CORS request to support request cookies to secured domains over ajax",
                "type": "boolean",
                "initvalue": true
            },
            "loadAdsOnPlay": {
                "doc": "By default ads are loaded at player startup time. \r\n\t\t\t\t\tSetting loadAdsOnPlay to true will load ads only once the user presses play.",
                "type": "boolean",
                "initvalue": false
            }
        }
    },
    "keyboardShortcuts": {
        "description": "The keyboard shortcuts plugins allows you to control the player using keyboard shortcuts. More about JavaScript <a target=\"_new\" href=\"https://developer.mozilla.org/en-US/docs/Web/API/KeyboardEvent.keyCode#Constants_for_keyCode_value\">key mappings</a>",
        "attributes": {
            "volumePercentChange": {
                "doc": "Volume change percent, from 0 to 1.",
                "type": "float",
                "initvalue": "0.1"
            },
            "shortSeekTime": {
                "doc": "Short seek time in seconds.",
                "type": "number",
                "initvalue": "5"
            },
            "longSeekTime": {
                "doc": "Long seek time in seconds.",
                "type": "number",
                "initvalue": "10"
            },
            "volumeUpKey": {
                "doc": "Volume Up Key.",
                "type": "number",
                "initvalue": "38"
            },
            "volumeDownKey": {
                "doc": "Volume Down Key.",
                "type": "number",
                "initvalue": "40"
            },
            "togglePlaybackKey": {
                "doc": "Playback toggle Key.",
                "type": "number",
                "initvalue": "32"
            },
            "shortSeekBackKey": {
                "doc": "Short Seek back key.",
                "type": "number",
                "initvalue": "37"
            },
            "shortSeekForwardKey": {
                "doc": "Short Seek long key.",
                "type": "number",
                "initvalue": "39"
            },
            "openFullscreenKey": {
                "doc": "Open Full Screen Key.",
                "type": "number",
                "initvalue": "70"
            },
            "closeFullscreenkey": {
                "doc": "Close Full Screen Key. Browsers by default supports escape key, independent of keyboard mapping.",
                "type": "number",
                "initvalue": "27"
            },
            "gotoBeginingKey": {
                "doc": "Go to the beginning of the video.",
                "type": "number",
                "initvalue": "36"
            },
            "gotoEndKey": {
                "doc": "Go to the end of the video.",
                "type": "number",
                "initvalue": "35"
            },
            "longSeekForwardKey": {
                "doc": "Long Seek long key.",
                "type": "string",
                "initvalue": "ctrl+39"
            },
            "longSeekBackKey": {
                "doc": "Long Seek back key.",
                "type": "string",
                "initvalue": "ctrl+37"
            },
            "percentageSeekKeys": {
                "doc": "Comma seperated keys for percentage seek.",
                "type": "numbersArray",
                "initvalue": "49,50,51,52,53,54,55,56,57"
            }
        }
    },
	"volumeControl": {
		"description": "The volume control plugin allows you to control the player volume using mute/unmute buttons and a volume slider.",
		"attributes": {
			"showSlider": {
				"doc": "Show the volume slider.",
				"type": "boolean",
				"initvalue": true
			},
			"layout": {
				"doc": "Volume slider layout.",
				"type": "enum",
				"enum": [
					"horizontal",
					"vertical"
				],
				"initvalue": "horizontal",
				"options": [
					{
						"label": "Horizontal",
						"value": "horizontal"
					},
					{
						"label": "Vertical",
						"value": "vertical"
					}
				]
			},
			"pinVolumeBar": {
				"doc": "If the volume slider bar should always be shown.",
				"type": "boolean",
				"initvalue": false
			},
			"accessibleControls": {
				"doc": "Accessible buttons volume change percent from 0 to 1: The amount of volume that will be added or reduced when using the accessible volume buttons.",
				"type": "boolean",
				"initvalue": false
			},
			"accessibleVolumeChange": {
				"doc": "Accessible buttons volume change percent from 0 to 1.",
				"type": "float",
				"initvalue": 0.1
			}
		}
	},
    "accessibilityButtons": {
        "description": "The accessibility buttons allow keyboard access to seek forward/backward and current position.",
        "attributes": {
            "positionBtn": {
                "doc": "Support position button.",
                "type": "boolean"
            },
            "forwardBtn": {
                "doc": "Support seek forward button.",
                "type": "boolean"
            },
            "backwardBtn": {
                "doc": "Support seek backward button.",
                "type": "boolean"
            }
        }
    },
    "restrictUserAgent": {
        "description": "Allows you to block the player to specific user agents.",
        "attributes": {
            "restrictedUserAgents": {
                "doc": "Comma seperated list of browsers to search for.",
                "type": "string"
            },
            "restrictedUserAgentTitle": {
                "doc": "Error Title.",
                "type": "string"
            },
            "restrictedUserAgentMessage": {
                "doc": "Error Message.",
                "type": "string"
            }
        }
    },
    "captureThumbnail": {
        "description": "Allow your users to capture a thumbnail from the video content. A KS must be supplied to ingest the reqspective thubmnail.",
        "plugin": {
            "doc": "If the plugin should be activated",
            "type": "string"
        }
    },
    "moderation": {
        "description": "Allow your users to flag content as inapproriate.",
        "attributes": {
            "header": {
                "doc": "Header text to show above the form.",
                "type": "string"
            },
            "text": {
                "doc": "Long description for the plugin.",
                "type": "string"
            },
            "tooltip": {
                "doc": "Button tooltip.",
                "type": "string"
            },
            "reasonSex": {
                "label": "Reason: Sexual Content",
                "doc": "Reason: Sexual Content.",
                "type": "string"
            },
            "reasonViolence": {
                "label": "Reason: Violent Content",
                "doc": "Reason: Violent Content.",
                "type": "string"
            },
            "reasonHarmful": {
                "label": "Reason: Harmful Content",
                "doc": "Reason: Harmful Content.",
                "type": "string"
            },
            "reasonSpam": {
                "label": "Reason: Spam",
                "doc": "Reason: Spam.",
                "type": "string"
            }
        }
    },
    "infoScreen": {
        "description": "Add Information screen about the video.",
        "attributes": {
            "parent": {
                "doc": "Parent container for component. Components include default placement, leave as null if unsure.",
                "type": "enum",
                "enum": [
                    "topBarContainer",
                    "videoHolder",
                    "controlsContainer"
                ],
                "options": [
                    {
                        "label": "Top bar container",
                        "value": "topBarContainer"
                    },
                    {
                        "label": "Controls container",
                        "value": "controlsContainer"
                    }
                ],
                "initvalue": "topBarContainer"
            },
            "align": {
                "doc": "Alignment for component, can be left or right.",
                "type": "enum",
                "enum": [
                    "left",
                    "right"
                ],
                "initvalue": "right",
                "options": [
                    {
                        "label": "Left",
                        "value": "left"
                    },
                    {
                        "label": "Right",
                        "value": "right"
                    }
                ]
            },
            "order": {
                "doc": "Draw order of the component within the container.\r\n\t\t\tTogether with alignment, determines component placement of the component. Order is set with respect to siblings on the parent container.",
                "type": "number"
            },
            "template": {
                "doc": "HTML Template for the info screen.",
                "type": "hiddenValue"
            }
        }
    },
    "titleLabel": {
        "description": "Enables a title hover overlay over the video content.",
        "attributes": {
            "align": {
                "doc": "Alignment for title text.",
                "type": "enum",
                "enum": [
                    "left",
                    "right"
                ],
                "initvalue": "left",
                "options": [
                    {
                        "label": "Left",
                        "value": "left"
                    },
                    {
                        "label": "Right",
                        "value": "right"
                    }
                ]
            },
            "text": {
                "doc": "The text string to be displayed for the title.",
                "initvalue": "{mediaProxy.entry.name}",
                "type": "string"
            },
            "truncateLongTitles": {
                "doc": "Truncate long titles to fit in one line. Truncated titles get a tooltip and 3 dots at the end of the truncated text.",
                "type": "boolean",
                "initvalue": true
            }
        }
    },
    "dualScreen": {
        "label": "Dual Screen",
        "description": "The Kaltura Player is the front-end interface used to view captured videos and/or presentations. The Kaltura Player provides you with multiple interactive viewing options, such as Picture-in-Picture, Side-by-Side, and other displays",
        "attributes": {
            "defaultDualScreenViewId": {
                "label": "Default Layout",
                "doc": "Default Layout",
                "type": "enum",
                "enum": [
                    "sbs-parent-in-right",
                    "sbs-parent-in-left",
                    "pip-parent-in-small",
                    "pip-parent-in-large",
                    "parent-only",
                    "no-parent"
                ],
                "initvalue": "pip-parent-in-small",
                "options": [
                    {
                        "label": "Side by Side / parent in right",
                        "value": "sbs-parent-in-right"
                    },{
                        "label": "Side by Side / parent in left",
                        "value": "sbs-parent-in-left"
                    },{
                        "label": "Picture in Picture / parent in small view",
                        "value": "pip-parent-in-small"
                    },{
                        "label": "Picture in Picture / parent in large view",
                        "value": "pip-parent-in-large"
                    },{
                        "label": "Parent Only",
                        "value": "parent-only"
                    },{
                        "label": "No Parent",
                        "value": "no-parent"
                    }
                ]
            }
        }
    },
    "airPlay": {
        "description": "Enables wireless streaming of audio, video, and photos, together with related metadata between devices, for iOS.",
        "type": "featuremenu",
        "label": "airPlay",
        "model": "config.plugins.airPlay"
    },
    "nativeCallout": {
        "description": "Supports replacing the player \"play button\" with a callout to native player, for Mobile Devices.",
        "type": "featuremenu",
        "model": "config.plugins.nativeCallout",
        "attributes": {
            "androidApplinkBaseURL": {
                "doc": "Base URL for applink, Android.",
                "initvalue": "",
                "type": "string"
            },
            "iosApplinkBaseURL": {
                "doc": "Base URL for applink, iOS.",
                "initvalue": "",
                "type": "string"
            },
            "appInstallLandingPage": {
                "doc": "Landing page for app install; shown if applink URL is not a web page.",
                "initvalue": "",
                "type": "string"
            }
        }
    },
    "related": {
        "description": "Add the Related Videos screen at the end of the video to attract users to watch additional videos.",
        "attributes": {
            "parent": {
                "doc": "Parent container for component. Components include default placement, leave as null if unsure.",
                "type": "enum",
                "enum": [
                    "topBarContainer",
                    "videoHolder",
                    "controlsContainer"
                ],
                "options": [
                    {
                        "label": "Top bar container",
                        "value": "topBarContainer"
                    },
                    {
                        "label": "Controls container",
                        "value": "controlsContainer"
                    }
                ],
                "initvalue": "topBarContainer"
            },
            "align": {
                "doc": "Alignment for component, can be left or right.",
                "type": "enum",
                "enum": [
                    "left",
                    "right"
                ],
                "initvalue": "right",
                "options": [
                    {
                        "label": "Left",
                        "value": "left"
                    },
                    {
                        "label": "Right",
                        "value": "right"
                    }
                ]
            },
            "order": {
                "doc": "Draw order of the component within the container.\r\n\t\t\tTogether with alignment, determines component placement of the component. Order is set with respect to siblings on the parent container.",
                "type": "number"
            },
	        "entries": {
				"label": "Related Entries Source",
				"doc": "Select the related entries source.",
				"configObject": "playlistSelectBox",
				"type": "related"
			},
	        "clickUrl": {
		        "doc": "<p style='text-align: left'>Defines the URL for a related item click</p>\r\n\t\t\t\t\t\t\t\tIf this left blank the click will replace the current video with a new one.\r\n\t\t\t\t\t\t\t\texample: <b>http://mydomain.com/?videoId={related.selectedEntry.id}</b> as a custom\r\n\t\t\t\t\t\t\t\tURL with the entry id as postfix",
		        "type": "string"
	        },
	        "autoContinueTime": {
		        "doc": "Number of seconds for auto play.",
		        "type": "number"
	        },
	        "itemsLimit": {
		        "doc": "Maximum number of items to show on the related screen.",
		        "type": "number"
	        },
            "displayOnPlaybackDone": {
                "doc": "Display related screen automatically when playback has finished",
                "type": "boolean",
                "initvalue": true
            },
            "sendContextWithPlaylist": {
                "doc": "Send context with the playlist (_KDP_CTXPL sends this automatically)",
                "type": "boolean",
                "initvalue": false
            },
            "autoContinueEnabled": {
                "doc": "Should the Next Item be automatically played.",
                "type": "boolean"
            },
            "storeSession": {
                "doc": "Store the played entries across page views in related clips display",
                "type": "boolean"
            }
        }
    },
    "strings": {
        "description": "Enables overwriting player strings.<br>For full string keys listing, review the <a href=\"http://player.kaltura.com/docs/Strings\" target=\"_blank\">Strings documentation page.</a><br>You can override strings seperately for different locales by adding the locale code before the string key and then a dot. For more info, look at the <a href=\"http://player.kaltura.com/modules/KalturaSupport/tests/StringsLocale.html\" target=\"_blank\">Strings locale demo.</a>",
        "type": "featuremenu",
        "label": "Strings",
        "model": "config.plugins.strings",
        "attributes": {
            "keyValuePairs": {
                "doc": "Key / Value pairs of strings to overwrite",
                "label": "Strings to overwrite:",
                "initvalue": "",
                "type": "keyValuePairs"
            }
        }
    },
    "hammerEvents": {
        "description": "Support Hammer.js events against the player canvas.",
        "attributes": {
            "on": {
                "doc": "The list of named hammer events to track seperated by spaces.",
                "type": "string"
            },
            "options": {
                "doc": "JSON object of hammer initialization options",
                "type": "string"
            }
        }
    }
}
