{
    "scrubberMarkers": {
        "label": "scrubberMarkers info",
        "description": "scrubberMarkers allow adding markers on the scrubber. You can mark start of the event time ",
        "attributes": {
            "parent": {
                "doc": "Parent container for component. Components include default placement, leave as null if unsure.",
                "type": "enum",
                "enum": ["bottomRightContainer", "videoHolder", "controlsContainer"]
            }
        }
    }
}
