{
    "debuggerAMG": {
        "label": "DebuggerAMG",
        "description": "DebuggerAMG .",
        "attributes": {
            "parent": {
                "doc": "Allowing onscreen debuggin messages.",
                "type": "enum",
                "enum": ["videoHolder"]
            }
        }
    }
}
